getNetCDF() and the resulting data.frame
…
fname <- sprintf ('%s%s/%srf%02d.nc', Ranadu::DataDirectory(),

         Project, Project, FlightNumber)

Variables <- Ranadu::standardVariables(c('UXC', 'VYC'))

Data <- Ranadu::getNetCDF(fname, Variables)

print (sprintf ('Data from data file %s', fname))

## [1] "Data from data file /Data/WECAN/WECANrf06.nc"

 print (tibble::as.tibble(Data))  # or print(head(Data))

## # A tibble: 23,701 x 18
##    Time                  ATX  DPXC   EWX GGALT  LATC  LONC   MACHX    MR
##    <dttm>              <dbl> <dbl> <dbl> <dbl> <dbl> <dbl>   <dbl> <dbl>
##  1 2018-08-03 19:55:00  29.9    NA    NA  865.  43.6 -116. 0.00125    NA
##  2 2018-08-03 19:55:01  29.9    NA    NA  865.  43.6 -116. 0.00125    NA
##  3 2018-08-03 19:55:02  29.9    NA    NA  865.  43.6 -116. 0.00125    NA
##  4 2018-08-03 19:55:03  29.9    NA    NA  865.  43.6 -116. 0.00125    NA
##  5 2018-08-03 19:55:04  29.9    NA    NA  865.  43.6 -116. 0.00125    NA
##  6 2018-08-03 19:55:05  29.9    NA    NA  865.  43.6 -116. 0.00125    NA
##  7 2018-08-03 19:55:06  29.9    NA    NA  865.  43.6 -116. 0.00125    NA
##  8 2018-08-03 19:55:07  29.9    NA    NA  865.  43.6 -116. 0.00125    NA
##  9 2018-08-03 19:55:08  29.9    NA    NA  865.  43.6 -116. 0.00125    NA
## 10 2018-08-03 19:55:09  29.9    NA    NA  865.  43.6 -116. 0.00125    NA
## # ... with 23,691 more rows, and 9 more variables: PALT <dbl>, PSXC <dbl>,
## #   QCXC <dbl>, TASX <dbl>, WDC <dbl>, WSC <dbl>, WIC <dbl>, UXC <dbl>,
## #   VYC <dbl>
…
