2. Getting Started
…
fname <- sprintf ('%s%s/%srf%02d.nc', Ranadu::DataDirectory(),

         Project, Project, FlightNumber)

Variables <- Ranadu::standardVariables(c('UXC', 'VYC'))

Data <- Ranadu::getNetCDF(fname, Variables)

print (sprintf ('Data from data file %s', fname))

## [1] "Data from data file /Data/WECAN/WECANrf06.nc"

 print (tibble::as_tibble(Data))  # or print(head(Data))

## # A tibble: 23,191 x 18
##    Time                  ATX  DPXC   EWX GGALT  LATC  LONC MACHX    MR
##    <dttm>              <dbl> <dbl> <dbl> <dbl> <dbl> <dbl> <dbl> <dbl>
##  1 2018-08-03 20:00:30  26.7    NA    NA  874.  43.6 -116. 0.109    NA
##  2 2018-08-03 20:00:31  26.6    NA    NA  874.  43.6 -116. 0.113    NA
##  3 2018-08-03 20:00:32  26.9    NA    NA  874.  43.6 -116. 0.118    NA
##  4 2018-08-03 20:00:33  27.2    NA    NA  874.  43.6 -116. 0.126    NA
##  5 2018-08-03 20:00:34  27.2    NA    NA  874.  43.6 -116. 0.129    NA
##  6 2018-08-03 20:00:35  27.3    NA    NA  874.  43.6 -116. 0.135    NA
##  7 2018-08-03 20:00:36  27.1    NA    NA  874.  43.6 -116. 0.142    NA
##  8 2018-08-03 20:00:37  27.2    NA    NA  874.  43.6 -116. 0.145    NA
##  9 2018-08-03 20:00:38  27.3    NA    NA  874.  43.6 -116. 0.149    NA
## 10 2018-08-03 20:00:39  27.4    NA    NA  873.  43.6 -116. 0.152    NA
## # ... with 23,181 more rows, and 9 more variables: PALT <dbl>, PSXC <dbl>,
## #   QCXC <dbl>, TASX <dbl>, WDC <dbl>, WSC <dbl>, WIC <dbl>, UXC <dbl>,
## #   VYC <dbl>
…
